{
  "DbDriver": "mysql",
  "DbHost": "127.0.0.1",
  "DbUserName": "root",
  "DbPassword": "",
  "Database": "pms",
  "Server": "127.0.0.1:8080",
  "Port": "8080",
  "TokenLifeTime": 5,
  "DefaultPageSize": 20,
  "ApiVersion": "v1"
}