{
	"ImportPath": "bitbucket.org/superfluxteam/pmsserver",
	"GoVersion": "go1.8",
	"GodepVersion": "v79",
	"Deps": [
		{
			"ImportPath": "github.com/astaxie/beego/orm",
			"Comment": "v1.8.3",
			"Rev": "cab8458c1c4a5a3b4bf5192922be620e6dede15b"
		},
		{
			"ImportPath": "github.com/dgrijalva/jwt-go",
			"Comment": "v3.0.0-20-ga539ee1",
			"Rev": "a539ee1a749a2b895533f979515ac7e6e0f5b650"
		},
		{
			"ImportPath": "github.com/go-sql-driver/mysql",
			"Comment": "v1.3-26-g8fefef0",
			"Rev": "8fefef06da7707b5a3cda42195a6b409c9c9ab5c"
		},
		{
			"ImportPath": "github.com/knq/dburl",
			"Rev": "4f69f2dea7d98df2086a2837072fc60ca14335d9"
		},
		{
			"ImportPath": "github.com/labstack/echo",
			"Comment": "v3.2.1-10-ge0ea129",
			"Rev": "e0ea129c5ce03a91613a4a04c992a1f32038143b"
		},
		{
			"ImportPath": "github.com/labstack/gommon/color",
			"Comment": "v0.2.1",
			"Rev": "1121fd3e243c202482226a7afe4dcd07ffc4139a"
		},
		{
			"ImportPath": "github.com/labstack/gommon/log",
			"Comment": "v0.2.1",
			"Rev": "1121fd3e243c202482226a7afe4dcd07ffc4139a"
		},
		{
			"ImportPath": "github.com/mattn/go-colorable",
			"Comment": "v0.0.8",
			"Rev": "941b50ebc6efddf4c41c8e4537a5f68a4e686b24"
		},
		{
			"ImportPath": "github.com/mattn/go-isatty",
			"Comment": "v0.0.2",
			"Rev": "fc9e8d8ef48496124e79ae0df75490096eccf6fe"
		},
		{
			"ImportPath": "github.com/nullbio/inflect",
			"Rev": "0563860d9a8cd788af0f5243761d841239d23ab2"
		},
		{
			"ImportPath": "github.com/pkg/errors",
			"Comment": "v0.8.0-5-gc605e28",
			"Rev": "c605e284fe17294bda444b34710735b29d1a9d90"
		},
		{
			"ImportPath": "github.com/valyala/bytebufferpool",
			"Rev": "e746df99fe4a3986f4d4f79e13c1e0117ce9c2f7"
		},
		{
			"ImportPath": "github.com/valyala/fasttemplate",
			"Rev": "dcecefd839c4193db0d35b88ec65b4c12d360ab0"
		},
		{
			"ImportPath": "github.com/vattle/sqlboiler/boil",
			"Comment": "v2.5.0-4-g0b027fa",
			"Rev": "0b027fa01c78dcc2036564fb7dabbd1229509821"
		},
		{
			"ImportPath": "github.com/vattle/sqlboiler/queries",
			"Comment": "v2.5.0-4-g0b027fa",
			"Rev": "0b027fa01c78dcc2036564fb7dabbd1229509821"
		},
		{
			"ImportPath": "github.com/vattle/sqlboiler/queries/qm",
			"Comment": "v2.5.0-4-g0b027fa",
			"Rev": "0b027fa01c78dcc2036564fb7dabbd1229509821"
		},
		{
			"ImportPath": "github.com/vattle/sqlboiler/strmangle",
			"Comment": "v2.5.0-4-g0b027fa",
			"Rev": "0b027fa01c78dcc2036564fb7dabbd1229509821"
		},
		{
			"ImportPath": "golang.org/x/crypto/acme",
			"Rev": "a48ac81e47fd6f9ed1258f3b60ae9e75f93cb7ed"
		},
		{
			"ImportPath": "golang.org/x/crypto/acme/autocert",
			"Rev": "a48ac81e47fd6f9ed1258f3b60ae9e75f93cb7ed"
		},
		{
			"ImportPath": "golang.org/x/sys/unix",
			"Rev": "6faef541c73732f438fb660a212750a9ba9f9362"
		},
		{
			"ImportPath": "gopkg.in/nullbio/null.v6",
			"Comment": "v6.3",
			"Rev": "40264a2e6b7972d183906cf17663983c23231c82"
		},
		{
			"ImportPath": "gopkg.in/nullbio/null.v6/convert",
			"Comment": "v6.3",
			"Rev": "40264a2e6b7972d183906cf17663983c23231c82"
		}
	]
}
